<svg xmlns="http://www.w3.org/2000/svg" xmlns:xlink="http://www.w3.org/1999/xlink" xmlns:ev="http://www.w3.org/2001/xml-events"
		xmlns:v="http://schemas.microsoft.com/visio/2003/SVGExtensions/" width="1.47892in" height="1.01042in"
		viewBox="0 0 106.482 72.75" xml:space="preserve" color-interpolation-filters="sRGB" class="st2">

    
		<g id="shape1-1" v:mID="1" v:groupContext="shape" transform="translate(0.375,-0.375)">
			<path fill="#D7D7D7"  d="M44.36 18.89 A24.0945 24.0945 -180 1 0 44.71 44.4 L51.97 44.4 L51.97 57.82 L54.71 57.82 L54.71 61.41 L66.05
						 61.41 L66.05 65.38 L60.38 65.38 L60.38 72.75 L75.69 72.75 L75.69 65.38 L69.17 65.38 L69.17 60.09 L72.85
						 60.09 L72.85 55.74 L96.57 55.74 L96.57 42.7 L101.1 42.7 L101.1 37.6 L103.37 37.6 L103.37 24.56 L105.73 24.56
						 L105.73 11.52 L72.85 11.52 L72.85 0.75 L55.94 0.75 L55.94 4.72 L51.87 4.72 L51.87 18.89 L44.36 18.89 Z"
					class="st1"/>
		</g>
</svg>
