<svg xmlns="http://www.w3.org/2000/svg" xmlns:xlink="http://www.w3.org/1999/xlink" xmlns:ev="http://www.w3.org/2001/xml-events"
		xmlns:v="http://schemas.microsoft.com/visio/2003/SVGExtensions/" width="3.21908in" height="1.19152in"
		viewBox="0 0 231.774 85.7894" xml:space="preserve" color-interpolation-filters="sRGB" class="st2">

	<linearGradient id="anim"  fy="0">
      <stop offset="0" stop-color="#148F01">
		</stop>
		<stop offset=".7" stop-color="#46DF04">
		</stop>
    </linearGradient>
    
		<g id="shape1-1" v:mID="1" v:groupContext="shape" transform="translate(0.375,-0.375)">
			<path fill="url(#anim)" stroke='rgba(49,163,0,0.7)' d="M85.04 0.75 L154.49 0.75 L154.49 19.18 L231.02 19.18 L231.02 58.86 L140.31 58.86 L140.31 85.79 L99.21 85.79
						 L99.21 66.69 L85.04 66.69 L85.04 58.86 L53.86 58.86 L53.86 85.79 L11.34 85.79 L11.34 58.86 L0 58.86 L0 19.18
						 L85.04 19.18 L85.04 0.75 Z" class="st1"/>
		</g>
</svg>
