<svg xmlns="http://www.w3.org/2000/svg" xmlns:xlink="http://www.w3.org/1999/xlink" xmlns:ev="http://www.w3.org/2001/xml-events"
		xmlns:v="http://schemas.microsoft.com/visio/2003/SVGExtensions/" width="2.2742in" height="1.39864in"
		viewBox="0 0 163.742 100.702" xml:space="preserve" color-interpolation-filters="sRGB" class="st2">

	<linearGradient id="anim"  fy="0">
      <stop offset="0" stop-color="#148F01">
		</stop>
		<stop offset=".7" stop-color="#46DF04">
		</stop>
    </linearGradient>
    
		<g id="shape1-1" v:mID="1" v:groupContext="shape" transform="translate(0.375,-0.375)">
			<path fill="url(#anim)" stroke='rgba(49,163,0,0.7)' d="M19.84 10.67 L38.27 10.67 L38.27 23.43 L55.28 23.43 L55.28 7.84 L85.04 7.84 L85.04 0.75 L143.15 0.75 L143.15
						 14.92 L162.99 14.92 L162.99 85.79 L143.15 85.79 L143.15 100.7 L85.04 100.7 L85.04 92.88 L19.84 92.88 L19.84
						 68.78 L0 68.78 L0 31.93 L19.84 31.93 L19.84 10.67 Z" class="st1"/>
		</g>
</svg>
