<svg xmlns="http://www.w3.org/2000/svg" xmlns:xlink="http://www.w3.org/1999/xlink" xmlns:ev="http://www.w3.org/2001/xml-events"
		xmlns:v="http://schemas.microsoft.com/visio/2003/SVGExtensions/" width="1.52616in" height="0.974984in"
		viewBox="0 0 109.884 70.1988" xml:space="preserve" color-interpolation-filters="sRGB" class="st2">


<linearGradient id="anim"  x1="0%" y1="100%">
      <stop offset="0%" stop-color="red" stop-opacity="1">
      		<animate attributeName="stop-color" 
      			values="red;rgba(255,0,0,0.3);red" dur="50ms" repeatCount="indefinite"/>
		</stop>
    </linearGradient>
    
    
		<g id="shape1-1" v:mID="1" v:groupContext="shape" transform="translate(0.375,-0.375)">
			<path fill="url(#anim)"  d="M0 0.75 L109.13 0.75 L109.13 70.2 L43.94 70.2 L43.94 64.53 L0 64.53 L0 0.75 Z" class="st1"/>
		</g>
</svg>
